{
  "user": {
    "name": "Александр",
    "surname": "Левочко",
    "patronymic": "Игоревич",
    "phone": "79999876669",
    "country": "Россия",
    "email": "sanek-lev@inbox.ru",
    "avatar": "/images/avatars/avatar_1.png",
    "role": "Frontend - разработчик"
  },
  "accessToken": "123",
  "refreshToken": "123"
}
